main.c:73:5:main	120	static
main.c:190:6:SystemClock_Config	104	static
main.c:232:6:MX_CAN_Init	8	static
main.c:260:13:MX_USART3_UART_Init	8	static
main.c:295:13:MX_GPIO_Init	40	static
main.c:334:6:Error_Handler	8	static
